{
  "config": {
    "agent": "Q", 
    "alpha": 0.08566982674680589, 
    "batch_size": 4, 
    "epsilon": 0.7515904365940231, 
    "epsilon_half_life": 481.786593810358, 
    "eta0": 1.4715103634222203e-05, 
    "gamma": 0.9373831480372556, 
    "gui": false, 
    "learning_rate": "optimal", 
    "maxIter": 500, 
    "scenario": "std_four_way", 
    "stepLength": 20
  }, 
  "stats": {
    "co2": 100367.96938746008, 
    "co2_std": 56012.339281732275, 
    "distanceTraveled": 190.86669950955587, 
    "distanceTraveled_std": 138.63728478371021, 
    "numVehicles": 48.066000000000017, 
    "numVehicles_std": 31.700228019684662, 
    "numWaiting": 33.323416666666652, 
    "numWaiting_std": 29.935035068901939
  }
}