{
  "config": {
    "agent": "Q", 
    "alpha": 0.4175387370016244, 
    "batch_size": 32, 
    "epsilon": 0.5605281695498787, 
    "epsilon_half_life": 377.0450723418279, 
    "eta0": 6.933968689096447e-05, 
    "gamma": 0.8403610597230723, 
    "gui": false, 
    "learning_rate": "invscaling", 
    "lqfProb": 0.41918338488791873, 
    "maxIter": 500, 
    "maxMinutes": 20.0, 
    "scenario": "two_by_two_3lane"
  }, 
  "stats": {
    "co2": 244734.48832778577, 
    "co2_std": 50275.712957867654, 
    "distanceTraveled": 550.08307986741386, 
    "distanceTraveled_std": 111.31964052784785, 
    "numVehicles": 55.260888888888886, 
    "numVehicles_std": 9.8016277912408345, 
    "numWaiting": 15.539, 
    "numWaiting_std": 7.0377654097705591
  }
}