{
  "config": {
    "agent": "Q", 
    "alpha": 7.9713381597759305, 
    "batch_size": 16, 
    "epsilon": 0.951550013648619, 
    "epsilon_half_life": 184.65387481478194, 
    "eta0": 0.00038396782021989567, 
    "gamma": 0.97225152989496, 
    "gui": false, 
    "learning_rate": "invscaling", 
    "maxIter": 1000, 
    "scenario": "std_four_way", 
    "stepLength": 20
  }, 
  "stats": {
    "co2": 136127.33745595335, 
    "co2_std": 93409.079178230793, 
    "distanceTraveled": 174.54552105117244, 
    "distanceTraveled_std": 227.75660250727623, 
    "numVehicles": 132.58916666666667, 
    "numVehicles_std": 45.462782206682228, 
    "numWaiting": 113.66425000000001, 
    "numWaiting_std": 48.304301256245978
  }
}