{
  "config": {
    "agent": "Q", 
    "alpha": 0.9106345197106526, 
    "batch_size": 4, 
    "epsilon": 0.9002021579095972, 
    "epsilon_half_life": 142.7391233278497, 
    "eta0": 6.162126506154834e-06, 
    "gamma": 0.868562182648318, 
    "gui": false, 
    "learning_rate": "invscaling", 
    "lqfProb": 0.8132483562565098, 
    "maxIter": 500, 
    "maxMinutes": 20.0, 
    "scenario": "two_by_two_3lane"
  }, 
  "stats": {
    "co2": 378771.39929125534, 
    "co2_std": 130248.04893821069, 
    "distanceTraveled": 331.34506429160484, 
    "distanceTraveled_std": 85.717480697577614, 
    "numVehicles": 454.79133034379669, 
    "numVehicles_std": 231.74079964650417, 
    "numWaiting": 416.89970104633778, 
    "numWaiting_std": 226.16194305014173
  }
}