{
  "config": {
    "agent": "Q", 
    "alpha": 4.029125726154608, 
    "batch_size": 32, 
    "epsilon": 0.5455004993330307, 
    "epsilon_half_life": 96.96718770516411, 
    "eta0": 2.5893408779730745e-05, 
    "gamma": 0.9291027073867114, 
    "gui": false, 
    "learning_rate": "constant", 
    "lqfProb": 0.6022895158944548, 
    "maxIter": 500, 
    "maxMinutes": 20.0, 
    "scenario": "two_by_two_3lane"
  }, 
  "stats": {
    "co2": 248564.87088337948, 
    "co2_std": 47133.293210509022, 
    "distanceTraveled": 554.99213328625422, 
    "distanceTraveled_std": 107.34799100247621, 
    "numVehicles": 56.844333333333331, 
    "numVehicles_std": 10.109620707615683, 
    "numWaiting": 16.47377777777778, 
    "numWaiting_std": 8.8618822402188453
  }
}