{
  "config": {
    "agent": "Q", 
    "alpha": 2.0096413649881435, 
    "batch_size": 4, 
    "epsilon": 0.9161280751736429, 
    "epsilon_half_life": 324.583617379745, 
    "eta0": 1.9899700894504668e-06, 
    "gamma": 0.9564190707238888, 
    "gui": false, 
    "learning_rate": "optimal", 
    "maxIter": 1000, 
    "scenario": "std_four_way", 
    "stepLength": 20
  }, 
  "stats": {
    "co2": 171481.67800327405, 
    "co2_std": 107753.3288780017, 
    "distanceTraveled": 197.2481418331601, 
    "distanceTraveled_std": 268.44278732922095, 
    "numVehicles": 177.83125000000001, 
    "numVehicles_std": 36.084074980349712, 
    "numWaiting": 152.37475000000001, 
    "numWaiting_std": 43.844498822780878
  }
}