{
  "config": {
    "agent": "Q", 
    "alpha": 4.180633875136721, 
    "batch_size": 8, 
    "epsilon": 0.863507925078578, 
    "epsilon_half_life": 132.18485953549904, 
    "eta0": 1.7802752009360728e-06, 
    "gamma": 0.9423144578636061, 
    "gui": false, 
    "learning_rate": "constant", 
    "lqfProb": 0.18135009327054497, 
    "maxIter": 500, 
    "maxMinutes": 20.0, 
    "scenario": "two_by_two_3lane"
  }, 
  "stats": {
    "co2": 347108.57087853696, 
    "co2_std": 108776.59830400172, 
    "distanceTraveled": 339.80729322664524, 
    "distanceTraveled_std": 89.981084754400811, 
    "numVehicles": 393.1262786596119, 
    "numVehicles_std": 196.63180487257137, 
    "numWaiting": 358.57724867724869, 
    "numWaiting_std": 194.62792847014114
  }
}