{
  "config": {
    "agent": "Q", 
    "alpha": 1.6942335320850845, 
    "batch_size": 4, 
    "epsilon": 0.6987028063541272, 
    "epsilon_half_life": 358.23339702928934, 
    "eta0": 8.709519766890328e-05, 
    "gamma": 0.9735255025882534, 
    "gui": false, 
    "learning_rate": "invscaling", 
    "maxIter": 1000, 
    "scenario": "std_four_way", 
    "stepLength": 20
  }, 
  "stats": {
    "co2": 82878.908922042625, 
    "co2_std": 28951.942024672415, 
    "distanceTraveled": 198.0576046369506, 
    "distanceTraveled_std": 75.857863201340564, 
    "numVehicles": 16.166250000000002, 
    "numVehicles_std": 4.4816292261669011, 
    "numWaiting": 4.1682499999999996, 
    "numWaiting_std": 2.8075690589606754
  }
}